[gd_scene load_steps=3 format=2]

[ext_resource path="res://actors/top_down_char.gd" type="Script" id=1]
[ext_resource path="res://scripts/state_machine.gd" type="Script" id=2]



[node name="Character" type="KinematicBody2D"]
script = ExtResource( 1 )

[node name="pivot" type="Position2D" parent="."]
editor/display_folded = true

[node name="Images" type="Sprite" parent="pivot"]

[node name="Collision" type="CollisionShape2D" parent="."]

[node name="StateMachine" type="Node" parent="."]
script = ExtResource( 2 )

[node name="Anim" type="AnimationPlayer" parent="."]
